verilog/ALU0.2/ALU.vcd
$date
	Tue Dec 24 13:48:57 2024
$end
$version
	Icarus Verilog
$end
$timescale
	1s
$end
$scope module ALUTB $end
$var wire 1 ! overflow $end
$var wire 12 " bcd [11:0] $end
$var wire 1 # CarryOUT $end
$var reg 4 $ A [3:0] $end
$var reg 4 % B [3:0] $end
$var reg 1 & CarryIN $end
$var reg 3 ' opCodeA [2:0] $end
$scope module uut $end
$var wire 4 ( A [3:0] $end
$var wire 4 ) B [3:0] $end
$var wire 1 & CarryIN $end
$var wire 3 * opCodeA [2:0] $end
$var wire 4 + wireY [3:0] $end
$var wire 8 , wireM [7:0] $end
$var wire 4 - wireLA [3:0] $end
$var wire 4 . sub_Y [3:0] $end
$var wire 4 / resultX [3:0] $end
$var wire 4 0 resultO [3:0] $end
$var wire 4 1 resultA [3:0] $end
$var wire 1 ! overflow $end
$var wire 8 2 opwireM [7:0] $end
$var wire 8 3 opCode8 [7:0] $end
$var wire 4 4 lUOutput2 [3:0] $end
$var wire 4 5 lUOutput1 [3:0] $end
$var wire 12 6 bcd [11:0] $end
$var wire 4 7 add_Y [3:0] $end
$var wire 4 8 aUtemp2 [3:0] $end
$var wire 4 9 aUtemp1 [3:0] $end
$var wire 8 : Y [7:0] $end
$var wire 1 # CarryOUT $end
$scope module aU $end
$var wire 4 ; A [3:0] $end
$var wire 4 < B [3:0] $end
$var wire 1 & CarryIN $end
$var wire 1 # CarryOUT $end
$var wire 2 = opCode [1:0] $end
$var wire 1 ! overflow $end
$var wire 4 > sub_Y [3:0] $end
$var wire 4 ? subY [3:0] $end
$var wire 1 @ overflowADD $end
$var wire 4 A add_Y [3:0] $end
$var wire 4 B addY [3:0] $end
$var wire 1 C CarryOUTSUB $end
$var wire 1 D CarryOUTADD $end
$scope module a1 $end
$var wire 4 E A [3:0] $end
$var wire 4 F B [3:0] $end
$var wire 1 & CarryIN $end
$var wire 1 @ overflow $end
$var wire 4 G Y [3:0] $end
$var wire 1 D CarryOUT $end
$var wire 3 H Carry4 [2:0] $end
$scope module f0 $end
$var wire 1 I A $end
$var wire 1 J B $end
$var wire 1 & Carry $end
$var wire 1 K CarryO $end
$var wire 1 L xor1 $end
$var wire 1 M and2 $end
$var wire 1 N and1 $end
$var wire 1 O Sum $end
$scope module h1 $end
$var wire 1 I A $end
$var wire 1 J B $end
$var wire 1 N Carry $end
$var wire 1 L Sum $end
$upscope $end
$scope module h2 $end
$var wire 1 L A $end
$var wire 1 & B $end
$var wire 1 M Carry $end
$var wire 1 O Sum $end
$upscope $end
$upscope $end
$scope module f1 $end
$var wire 1 P A $end
$var wire 1 Q B $end
$var wire 1 R Carry $end
$var wire 1 S CarryO $end
$var wire 1 T xor1 $end
$var wire 1 U and2 $end
$var wire 1 V and1 $end
$var wire 1 W Sum $end
$scope module h1 $end
$var wire 1 P A $end
$var wire 1 Q B $end
$var wire 1 V Carry $end
$var wire 1 T Sum $end
$upscope $end
$scope module h2 $end
$var wire 1 T A $end
$var wire 1 R B $end
$var wire 1 U Carry $end
$var wire 1 W Sum $end
$upscope $end
$upscope $end
$scope module f2 $end
$var wire 1 X A $end
$var wire 1 Y B $end
$var wire 1 Z Carry $end
$var wire 1 [ CarryO $end
$var wire 1 \ xor1 $end
$var wire 1 ] and2 $end
$var wire 1 ^ and1 $end
$var wire 1 _ Sum $end
$scope module h1 $end
$var wire 1 X A $end
$var wire 1 Y B $end
$var wire 1 ^ Carry $end
$var wire 1 \ Sum $end
$upscope $end
$scope module h2 $end
$var wire 1 \ A $end
$var wire 1 Z B $end
$var wire 1 ] Carry $end
$var wire 1 _ Sum $end
$upscope $end
$upscope $end
$scope module f3 $end
$var wire 1 ` A $end
$var wire 1 a B $end
$var wire 1 b Carry $end
$var wire 1 D CarryO $end
$var wire 1 c xor1 $end
$var wire 1 d and2 $end
$var wire 1 e and1 $end
$var wire 1 f Sum $end
$scope module h1 $end
$var wire 1 ` A $end
$var wire 1 a B $end
$var wire 1 e Carry $end
$var wire 1 c Sum $end
$upscope $end
$scope module h2 $end
$var wire 1 c A $end
$var wire 1 b B $end
$var wire 1 d Carry $end
$var wire 1 f Sum $end
$upscope $end
$upscope $end
$upscope $end
$scope module s1 $end
$var wire 4 g A [3:0] $end
$var wire 4 h B [3:0] $end
$var wire 1 & BorrowIN $end
$var wire 4 i tempB [3:0] $end
$var wire 4 j Y [3:0] $end
$var wire 1 C BorrowOUT $end
$scope module f0 $end
$var wire 1 k A $end
$var wire 1 l B $end
$var wire 1 & BorrowIN $end
$var wire 1 m BorrowOut $end
$var wire 1 n tempD $end
$var wire 1 o tempB2 $end
$var wire 1 p tempB1 $end
$var wire 1 q Difference $end
$scope module hf1 $end
$var wire 1 k A $end
$var wire 1 l B $end
$var wire 1 p Borrow $end
$var wire 1 n Difference $end
$var wire 1 r notA $end
$upscope $end
$scope module hf2 $end
$var wire 1 n A $end
$var wire 1 & B $end
$var wire 1 o Borrow $end
$var wire 1 q Difference $end
$var wire 1 s notA $end
$upscope $end
$upscope $end
$scope module f1 $end
$var wire 1 t A $end
$var wire 1 u B $end
$var wire 1 v BorrowIN $end
$var wire 1 w BorrowOut $end
$var wire 1 x tempD $end
$var wire 1 y tempB2 $end
$var wire 1 z tempB1 $end
$var wire 1 { Difference $end
$scope module hf1 $end
$var wire 1 t A $end
$var wire 1 u B $end
$var wire 1 z Borrow $end
$var wire 1 x Difference $end
$var wire 1 | notA $end
$upscope $end
$scope module hf2 $end
$var wire 1 x A $end
$var wire 1 v B $end
$var wire 1 y Borrow $end
$var wire 1 { Difference $end
$var wire 1 } notA $end
$upscope $end
$upscope $end
$scope module f2 $end
$var wire 1 ~ A $end
$var wire 1 !" B $end
$var wire 1 "" BorrowIN $end
$var wire 1 #" BorrowOut $end
$var wire 1 $" tempD $end
$var wire 1 %" tempB2 $end
$var wire 1 &" tempB1 $end
$var wire 1 '" Difference $end
$scope module hf1 $end
$var wire 1 ~ A $end
$var wire 1 !" B $end
$var wire 1 &" Borrow $end
$var wire 1 $" Difference $end
$var wire 1 (" notA $end
$upscope $end
$scope module hf2 $end
$var wire 1 $" A $end
$var wire 1 "" B $end
$var wire 1 %" Borrow $end
$var wire 1 '" Difference $end
$var wire 1 )" notA $end
$upscope $end
$upscope $end
$scope module f3 $end
$var wire 1 *" A $end
$var wire 1 +" B $end
$var wire 1 ," BorrowIN $end
$var wire 1 C BorrowOut $end
$var wire 1 -" tempD $end
$var wire 1 ." tempB2 $end
$var wire 1 /" tempB1 $end
$var wire 1 0" Difference $end
$scope module hf1 $end
$var wire 1 *" A $end
$var wire 1 +" B $end
$var wire 1 /" Borrow $end
$var wire 1 -" Difference $end
$var wire 1 1" notA $end
$upscope $end
$scope module hf2 $end
$var wire 1 -" A $end
$var wire 1 ," B $end
$var wire 1 ." Borrow $end
$var wire 1 0" Difference $end
$var wire 1 2" notA $end
$upscope $end
$upscope $end
$upscope $end
$upscope $end
$scope module btod1 $end
$var wire 8 3" binary [7:0] $end
$var wire 1 4" empty1 $end
$var wire 1 5" empty2 $end
$var wire 4 6" dab5 [3:0] $end
$var wire 4 7" dab4 [3:0] $end
$var wire 4 8" dab3 [3:0] $end
$var wire 4 9" dab2 [3:0] $end
$var wire 4 :" dab1 [3:0] $end
$var wire 12 ;" bcd [11:0] $end
$scope module d1t $end
$var wire 1 4" A $end
$var wire 1 <" B $end
$var wire 1 =" C $end
$var wire 1 >" D $end
$var wire 1 ?" E $end
$var wire 1 @" X $end
$var wire 1 A" Y $end
$var wire 1 B" Z $end
$var wire 1 C" nor1 $end
$var wire 1 D" nor2 $end
$var wire 1 E" nor3 $end
$var wire 1 F" or1 $end
$var wire 1 G" xor1 $end
$var wire 1 H" xor2 $end
$upscope $end
$scope module d2u $end
$var wire 1 I" A $end
$var wire 1 J" B $end
$var wire 1 K" C $end
$var wire 1 L" D $end
$var wire 1 M" E $end
$var wire 1 N" X $end
$var wire 1 O" Y $end
$var wire 1 P" Z $end
$var wire 1 Q" nor1 $end
$var wire 1 R" nor2 $end
$var wire 1 S" nor3 $end
$var wire 1 T" or1 $end
$var wire 1 U" xor1 $end
$var wire 1 V" xor2 $end
$upscope $end
$scope module d3v $end
$var wire 1 W" A $end
$var wire 1 X" B $end
$var wire 1 Y" C $end
$var wire 1 Z" D $end
$var wire 1 [" E $end
$var wire 1 \" X $end
$var wire 1 ]" Y $end
$var wire 1 ^" Z $end
$var wire 1 _" nor1 $end
$var wire 1 `" nor2 $end
$var wire 1 a" nor3 $end
$var wire 1 b" or1 $end
$var wire 1 c" xor1 $end
$var wire 1 d" xor2 $end
$upscope $end
$scope module d4w $end
$var wire 1 5" A $end
$var wire 1 e" B $end
$var wire 1 f" C $end
$var wire 1 g" D $end
$var wire 1 h" E $end
$var wire 1 i" X $end
$var wire 1 j" Y $end
$var wire 1 k" Z $end
$var wire 1 l" nor1 $end
$var wire 1 m" nor2 $end
$var wire 1 n" nor3 $end
$var wire 1 o" or1 $end
$var wire 1 p" xor1 $end
$var wire 1 q" xor2 $end
$upscope $end
$scope module d5x $end
$var wire 1 r" A $end
$var wire 1 s" B $end
$var wire 1 t" C $end
$var wire 1 u" D $end
$var wire 1 v" E $end
$var wire 1 w" X $end
$var wire 1 x" Y $end
$var wire 1 y" Z $end
$var wire 1 z" nor1 $end
$var wire 1 {" nor2 $end
$var wire 1 |" nor3 $end
$var wire 1 }" or1 $end
$var wire 1 ~" xor1 $end
$var wire 1 !# xor2 $end
$upscope $end
$scope module d6y $end
$var wire 1 "# A $end
$var wire 1 ## B $end
$var wire 1 $# C $end
$var wire 1 %# D $end
$var wire 1 &# E $end
$var wire 1 '# X $end
$var wire 1 (# Y $end
$var wire 1 )# Z $end
$var wire 1 *# nor1 $end
$var wire 1 +# nor2 $end
$var wire 1 ,# nor3 $end
$var wire 1 -# or1 $end
$var wire 1 .# xor1 $end
$var wire 1 /# xor2 $end
$upscope $end
$scope module d7z $end
$var wire 1 0# A $end
$var wire 1 1# B $end
$var wire 1 2# C $end
$var wire 1 3# D $end
$var wire 1 4# E $end
$var wire 1 5# X $end
$var wire 1 6# Y $end
$var wire 1 7# Z $end
$var wire 1 8# nor1 $end
$var wire 1 9# nor2 $end
$var wire 1 :# nor3 $end
$var wire 1 ;# or1 $end
$var wire 1 <# xor1 $end
$var wire 1 =# xor2 $end
$upscope $end
$upscope $end
$scope module lU $end
$var wire 4 ># A [3:0] $end
$var wire 4 ?# B [3:0] $end
$var wire 3 @# opCode [2:0] $end
$var wire 4 A# xor1 [3:0] $end
$var wire 4 B# resultX [3:0] $end
$var wire 4 C# resultO [3:0] $end
$var wire 4 D# resultA [3:0] $end
$var wire 4 E# or1 [3:0] $end
$var wire 4 F# and1 [3:0] $end
$upscope $end
$scope module mU $end
$var wire 4 G# A [3:0] $end
$var wire 4 H# B [3:0] $end
$var wire 1 I# overflow2 $end
$var wire 1 J# overflow1 $end
$var wire 1 K# overflow0 $end
$var wire 4 L# b0 [3:0] $end
$var wire 4 M# a2 [3:0] $end
$var wire 4 N# a1 [3:0] $end
$var wire 4 O# a0 [3:0] $end
$var wire 8 P# Y [7:0] $end
$var wire 5 Q# S2 [4:0] $end
$var wire 5 R# S1 [4:0] $end
$var wire 5 S# S0 [4:0] $end
$scope module add0 $end
$var wire 4 T# A [3:0] $end
$var wire 4 U# B [3:0] $end
$var wire 1 V# CarryIN $end
$var wire 1 K# overflow $end
$var wire 4 W# Y [3:0] $end
$var wire 1 X# CarryOUT $end
$var wire 3 Y# Carry4 [2:0] $end
$scope module f0 $end
$var wire 1 Z# A $end
$var wire 1 [# B $end
$var wire 1 V# Carry $end
$var wire 1 \# CarryO $end
$var wire 1 ]# xor1 $end
$var wire 1 ^# and2 $end
$var wire 1 _# and1 $end
$var wire 1 `# Sum $end
$scope module h1 $end
$var wire 1 Z# A $end
$var wire 1 [# B $end
$var wire 1 _# Carry $end
$var wire 1 ]# Sum $end
$upscope $end
$scope module h2 $end
$var wire 1 ]# A $end
$var wire 1 V# B $end
$var wire 1 ^# Carry $end
$var wire 1 `# Sum $end
$upscope $end
$upscope $end
$scope module f1 $end
$var wire 1 a# A $end
$var wire 1 b# B $end
$var wire 1 c# Carry $end
$var wire 1 d# CarryO $end
$var wire 1 e# xor1 $end
$var wire 1 f# and2 $end
$var wire 1 g# and1 $end
$var wire 1 h# Sum $end
$scope module h1 $end
$var wire 1 a# A $end
$var wire 1 b# B $end
$var wire 1 g# Carry $end
$var wire 1 e# Sum $end
$upscope $end
$scope module h2 $end
$var wire 1 e# A $end
$var wire 1 c# B $end
$var wire 1 f# Carry $end
$var wire 1 h# Sum $end
$upscope $end
$upscope $end
$scope module f2 $end
$var wire 1 i# A $end
$var wire 1 j# B $end
$var wire 1 k# Carry $end
$var wire 1 l# CarryO $end
$var wire 1 m# xor1 $end
$var wire 1 n# and2 $end
$var wire 1 o# and1 $end
$var wire 1 p# Sum $end
$scope module h1 $end
$var wire 1 i# A $end
$var wire 1 j# B $end
$var wire 1 o# Carry $end
$var wire 1 m# Sum $end
$upscope $end
$scope module h2 $end
$var wire 1 m# A $end
$var wire 1 k# B $end
$var wire 1 n# Carry $end
$var wire 1 p# Sum $end
$upscope $end
$upscope $end
$scope module f3 $end
$var wire 1 q# A $end
$var wire 1 r# B $end
$var wire 1 s# Carry $end
$var wire 1 X# CarryO $end
$var wire 1 t# xor1 $end
$var wire 1 u# and2 $end
$var wire 1 v# and1 $end
$var wire 1 w# Sum $end
$scope module h1 $end
$var wire 1 q# A $end
$var wire 1 r# B $end
$var wire 1 v# Carry $end
$var wire 1 t# Sum $end
$upscope $end
$scope module h2 $end
$var wire 1 t# A $end
$var wire 1 s# B $end
$var wire 1 u# Carry $end
$var wire 1 w# Sum $end
$upscope $end
$upscope $end
$upscope $end
$scope module add1 $end
$var wire 4 x# A [3:0] $end
$var wire 4 y# B [3:0] $end
$var wire 1 z# CarryIN $end
$var wire 1 J# overflow $end
$var wire 4 {# Y [3:0] $end
$var wire 1 |# CarryOUT $end
$var wire 3 }# Carry4 [2:0] $end
$scope module f0 $end
$var wire 1 ~# A $end
$var wire 1 !$ B $end
$var wire 1 z# Carry $end
$var wire 1 "$ CarryO $end
$var wire 1 #$ xor1 $end
$var wire 1 $$ and2 $end
$var wire 1 %$ and1 $end
$var wire 1 &$ Sum $end
$scope module h1 $end
$var wire 1 ~# A $end
$var wire 1 !$ B $end
$var wire 1 %$ Carry $end
$var wire 1 #$ Sum $end
$upscope $end
$scope module h2 $end
$var wire 1 #$ A $end
$var wire 1 z# B $end
$var wire 1 $$ Carry $end
$var wire 1 &$ Sum $end
$upscope $end
$upscope $end
$scope module f1 $end
$var wire 1 '$ A $end
$var wire 1 ($ B $end
$var wire 1 )$ Carry $end
$var wire 1 *$ CarryO $end
$var wire 1 +$ xor1 $end
$var wire 1 ,$ and2 $end
$var wire 1 -$ and1 $end
$var wire 1 .$ Sum $end
$scope module h1 $end
$var wire 1 '$ A $end
$var wire 1 ($ B $end
$var wire 1 -$ Carry $end
$var wire 1 +$ Sum $end
$upscope $end
$scope module h2 $end
$var wire 1 +$ A $end
$var wire 1 )$ B $end
$var wire 1 ,$ Carry $end
$var wire 1 .$ Sum $end
$upscope $end
$upscope $end
$scope module f2 $end
$var wire 1 /$ A $end
$var wire 1 0$ B $end
$var wire 1 1$ Carry $end
$var wire 1 2$ CarryO $end
$var wire 1 3$ xor1 $end
$var wire 1 4$ and2 $end
$var wire 1 5$ and1 $end
$var wire 1 6$ Sum $end
$scope module h1 $end
$var wire 1 /$ A $end
$var wire 1 0$ B $end
$var wire 1 5$ Carry $end
$var wire 1 3$ Sum $end
$upscope $end
$scope module h2 $end
$var wire 1 3$ A $end
$var wire 1 1$ B $end
$var wire 1 4$ Carry $end
$var wire 1 6$ Sum $end
$upscope $end
$upscope $end
$scope module f3 $end
$var wire 1 7$ A $end
$var wire 1 8$ B $end
$var wire 1 9$ Carry $end
$var wire 1 |# CarryO $end
$var wire 1 :$ xor1 $end
$var wire 1 ;$ and2 $end
$var wire 1 <$ and1 $end
$var wire 1 =$ Sum $end
$scope module h1 $end
$var wire 1 7$ A $end
$var wire 1 8$ B $end
$var wire 1 <$ Carry $end
$var wire 1 :$ Sum $end
$upscope $end
$scope module h2 $end
$var wire 1 :$ A $end
$var wire 1 9$ B $end
$var wire 1 ;$ Carry $end
$var wire 1 =$ Sum $end
$upscope $end
$upscope $end
$upscope $end
$scope module add2 $end
$var wire 4 >$ A [3:0] $end
$var wire 4 ?$ B [3:0] $end
$var wire 1 @$ CarryIN $end
$var wire 1 I# overflow $end
$var wire 4 A$ Y [3:0] $end
$var wire 1 B$ CarryOUT $end
$var wire 3 C$ Carry4 [2:0] $end
$scope module f0 $end
$var wire 1 D$ A $end
$var wire 1 E$ B $end
$var wire 1 @$ Carry $end
$var wire 1 F$ CarryO $end
$var wire 1 G$ xor1 $end
$var wire 1 H$ and2 $end
$var wire 1 I$ and1 $end
$var wire 1 J$ Sum $end
$scope module h1 $end
$var wire 1 D$ A $end
$var wire 1 E$ B $end
$var wire 1 I$ Carry $end
$var wire 1 G$ Sum $end
$upscope $end
$scope module h2 $end
$var wire 1 G$ A $end
$var wire 1 @$ B $end
$var wire 1 H$ Carry $end
$var wire 1 J$ Sum $end
$upscope $end
$upscope $end
$scope module f1 $end
$var wire 1 K$ A $end
$var wire 1 L$ B $end
$var wire 1 M$ Carry $end
$var wire 1 N$ CarryO $end
$var wire 1 O$ xor1 $end
$var wire 1 P$ and2 $end
$var wire 1 Q$ and1 $end
$var wire 1 R$ Sum $end
$scope module h1 $end
$var wire 1 K$ A $end
$var wire 1 L$ B $end
$var wire 1 Q$ Carry $end
$var wire 1 O$ Sum $end
$upscope $end
$scope module h2 $end
$var wire 1 O$ A $end
$var wire 1 M$ B $end
$var wire 1 P$ Carry $end
$var wire 1 R$ Sum $end
$upscope $end
$upscope $end
$scope module f2 $end
$var wire 1 S$ A $end
$var wire 1 T$ B $end
$var wire 1 U$ Carry $end
$var wire 1 V$ CarryO $end
$var wire 1 W$ xor1 $end
$var wire 1 X$ and2 $end
$var wire 1 Y$ and1 $end
$var wire 1 Z$ Sum $end
$scope module h1 $end
$var wire 1 S$ A $end
$var wire 1 T$ B $end
$var wire 1 Y$ Carry $end
$var wire 1 W$ Sum $end
$upscope $end
$scope module h2 $end
$var wire 1 W$ A $end
$var wire 1 U$ B $end
$var wire 1 X$ Carry $end
$var wire 1 Z$ Sum $end
$upscope $end
$upscope $end
$scope module f3 $end
$var wire 1 [$ A $end
$var wire 1 \$ B $end
$var wire 1 ]$ Carry $end
$var wire 1 B$ CarryO $end
$var wire 1 ^$ xor1 $end
$var wire 1 _$ and2 $end
$var wire 1 `$ and1 $end
$var wire 1 a$ Sum $end
$scope module h1 $end
$var wire 1 [$ A $end
$var wire 1 \$ B $end
$var wire 1 `$ Carry $end
$var wire 1 ^$ Sum $end
$upscope $end
$scope module h2 $end
$var wire 1 ^$ A $end
$var wire 1 ]$ B $end
$var wire 1 _$ Carry $end
$var wire 1 a$ Sum $end
$upscope $end
$upscope $end
$upscope $end
$upscope $end
$scope module opCd $end
$var wire 3 b$ A [2:0] $end
$var wire 1 c$ and1 $end
$var wire 1 d$ and2 $end
$var wire 1 e$ and3 $end
$var wire 1 f$ and4 $end
$var wire 1 g$ notA $end
$var wire 1 h$ notB $end
$var wire 1 i$ notC $end
$var wire 8 j$ opCode [7:0] $end
$upscope $end
$upscope $end
$upscope $end
$enddefinitions $end
#0
$dumpvars
b1000 j$
0i$
0h$
1g$
0f$
0e$
1d$
0c$
b11 b$
0a$
0`$
0_$
0^$
0]$
0\$
0[$
0Z$
0Y$
0X$
0W$
0V$
0U$
0T$
0S$
0R$
0Q$
0P$
0O$
0N$
0M$
0L$
0K$
0J$
0I$
0H$
0G$
0F$
0E$
0D$
b0 C$
0B$
b0 A$
0@$
b0 ?$
b0 >$
0=$
0<$
0;$
0:$
09$
08$
07$
06$
05$
04$
03$
02$
01$
00$
0/$
0.$
0-$
0,$
0+$
0*$
0)$
0($
0'$
0&$
0%$
0$$
0#$
0"$
0!$
0~#
b0 }#
0|#
b0 {#
0z#
b0 y#
b0 x#
0w#
0v#
0u#
0t#
0s#
0r#
0q#
0p#
0o#
0n#
0m#
0l#
0k#
0j#
0i#
0h#
0g#
0f#
0e#
0d#
0c#
0b#
0a#
0`#
0_#
0^#
0]#
0\#
0[#
0Z#
b0 Y#
0X#
b0 W#
0V#
b0 U#
b0 T#
b0 S#
b0 R#
b0 Q#
b0 P#
b0 O#
b0 N#
b0 M#
b0 L#
0K#
0J#
0I#
b0 H#
b0 G#
b0 F#
b0 E#
b0 D#
b0 C#
b0 B#
b0 A#
b0 @#
b0 ?#
b0 >#
0=#
0<#
1;#
0:#
19#
18#
07#
06#
05#
04#
03#
02#
01#
00#
0/#
0.#
1-#
0,#
1+#
1*#
0)#
0(#
0'#
0&#
0%#
0$#
0##
0"#
0!#
0~"
1}"
0|"
1{"
1z"
0y"
0x"
0w"
0v"
0u"
0t"
0s"
0r"
0q"
0p"
1o"
0n"
1m"
1l"
0k"
0j"
0i"
0h"
0g"
0f"
0e"
0d"
0c"
1b"
0a"
1`"
1_"
0^"
0]"
0\"
0["
0Z"
0Y"
0X"
0W"
0V"
0U"
1T"
0S"
1R"
1Q"
0P"
0O"
0N"
0M"
0L"
0K"
0J"
0I"
0H"
0G"
1F"
0E"
1D"
1C"
0B"
0A"
0@"
0?"
0>"
0="
0<"
b0 ;"
b0 :"
b0 9"
b0 8"
b0z 7"
b0 6"
05"
04"
b0 3"
12"
11"
00"
0/"
0."
0-"
0,"
0+"
0*"
1)"
1("
0'"
0&"
0%"
0$"
0#"
0""
0!"
0~
1}
1|
0{
0z
0y
0x
0w
0v
0u
0t
1s
1r
0q
0p
0o
0n
0m
0l
0k
b0 j
bz000 i
b0 h
b0 g
0f
0e
0d
0c
0b
0a
0`
0_
0^
0]
0\
0[
0Z
0Y
0X
0W
0V
0U
0T
0S
0R
0Q
0P
0O
0N
0M
0L
0K
0J
0I
b0 H
b0 G
b0 F
b0 E
0D
0C
b0 B
b0 A
0@
b0 ?
b0 >
b0 =
b0 <
b0 ;
b0 :
b0 9
b0 8
b0 7
b0 6
b0 5
b0 4
b1000 3
b0 2
b0 1
b0 0
b0 /
b0 .
b0 -
b0 ,
b0 +
b11 *
b0 )
b0 (
b11 '
0&
b0 %
b0 $
0#
b0 "
0!
$end
#5
1v
1""
1,"
1!
1#
1O
1W
1_
b1111 B
b1111 G
1f
1q
0s
1m
0{
0}
1w
0'"
0)"
bz111 i
1#"
b1 ?
b1 j
00"
02"
1C
1L
1T
1\
1c
1n
1p
1x
1z
1$"
1&"
1-"
1/"
b1111 E#
b1111 A#
1J
1Q
1Y
1a
1l
1u
1!"
1+"
b1111 %
b1111 )
b1111 <
b1111 F
b1111 h
b1111 ?#
b1111 H#
#10
1{
1'"
b1111 ?
b1111 j
10"
0v
0""
0,"
0!
0#
0m
0w
bz000 i
0#"
0C
0p
0z
0&"
0/"
0r
0|
0("
01"
0J
0Q
0Y
0a
0l
0u
0!"
0+"
1I
1P
1X
1`
1k
1t
1~
1*"
b0 %
b0 )
b0 <
b0 F
b0 h
b0 ?#
b0 H#
b1111 $
b1111 (
b1111 ;
b1111 E
b1111 g
b1111 >#
b1111 G#
#15
1`$
0X$
1C
1\$
1."
14$
1P$
1,"
1)$
11$
1|#
1B$
1#"
1<$
1"$
1*$
0;$
0J#
0_$
0I#
1%"
18$
1%$
1-$
19$
1M$
1U$
1]$
1""
1!$
1($
b111 }#
12$
1F$
1N$
b111 C$
1V$
1w
1X#
05$
1I$
0Q$
1Y$
1y
1h#
1p#
1u#
0K#
00$
1E$
0L$
1T$
1v
1c#
1k#
1s#
b1011 y#
b1101 ?$
1!
bz111 i
1m
1\#
1d#
b111 Y#
1l#
b10110 S#
b110 W#
0w#
0&$
1.$
06$
b11010 R#
b1010 {#
1=$
0J$
0R$
1Z$
b11100 Q#
b1100 A$
1a$
1Z
1b
0@
1#
1o
1_#
1g#
1o#
1t#
0#$
0+$
13$
0:$
0G$
1O$
0W$
0^$
1R
1S
1W
1[
1_
1D
1f
1s
1{
1}
1'"
1)"
10"
12"
1[#
1b#
1j#
1Z#
1a#
1i#
1q#
1~#
1'$
1/$
17$
1D$
1K$
1S$
1[$
b111 H
1K
1N
0L
1V
0T
1^
0\
1e
0c
0n
0x
0$"
0-"
b1111 F#
b0 A#
b11100001 2
b11100001 P#
b111 L#
b111 U#
b1111 O#
b1111 T#
b1111 N#
b1111 x#
b1111 M#
b1111 >$
0M
b1111 B
b1111 G
1O
b1111 ?
b1111 j
1q
1J
1Q
1Y
1a
1l
1u
1!"
1+"
1&
b1111 %
b1111 )
b1111 <
b1111 F
b1111 h
b1111 ?#
b1111 H#
#20
0\$
0B$
1J#
0I#
0|#
0E$
1L$
0]$
0V$
1,$
0.$
04$
16$
08$
0-$
1+$
15$
03$
0U$
1K#
0($
10$
1T$
b110001 2
b110001 P#
0M$
0N$
0X#
b101 y#
b110 ?$
b0 C$
0F$
0J$
0P$
1R$
0X$
1Z$
1n#
0p#
0u#
b1010 S#
b1010 W#
1w#
0;$
b1100 R#
b1100 {#
1=$
0_$
b110 Q#
b110 A$
0a$
0I$
0G$
1O$
0Y$
1W$
1@
0o#
1m#
0t#
0<$
0:$
0`$
0^$
0D$
0K$
0S$
0D
0j#
0q#
07$
0[$
0e
11"
b111 F#
b111 E#
b11 L#
b11 U#
b111 O#
b111 T#
b111 N#
b111 x#
b0 M#
b0 >$
0a
0+"
0`
0*"
b111 %
b111 )
b111 <
b111 F
b111 h
b111 ?#
b111 H#
b111 $
b111 (
b111 ;
b111 E
b111 g
b111 >#
b111 G#
#25
0Z$
0W$
0T$
0!
0#
0C
0=$
0J#
00"
0."
09$
0,"
0!$
00$
02$
0J$
b0 Q#
b0 A$
0R$
0#"
0w#
0K#
0G$
0O$
0'"
0%"
0h#
0s#
0($
01$
0E$
0L$
0""
0c#
0k#
0l#
b0 y#
0)$
0*$
b0 ?$
0w
0W
0_
0f
0@
0\#
b0 Y#
0d#
0n#
b0 S#
b0 W#
0p#
b0 }#
0"$
0&$
0,$
0.$
04$
b0 R#
b0 {#
06$
0{
0y
0R
0Z
0b
0_#
0g#
0m#
0%$
0#$
0+$
05$
03$
0d$
b10000000 3
b10000000 j$
0v
0K
0S
b0 H
0[
0[#
0b#
0Z#
0a#
0i#
0~#
0'$
0/$
0g$
1c$
bz000 i
0m
0N
0V
0^
1r
1|
1("
b0 F#
b0 E#
b0 2
b0 P#
b0 L#
b0 U#
b0 O#
b0 T#
b0 N#
b0 x#
b0 B
b0 G
0O
b0 ?
b0 j
0q
0o
0J
0Q
0Y
0l
0u
0!"
0I
0P
0X
0k
0t
0~
b111 '
b111 *
b111 b$
0&
b0 %
b0 )
b0 <
b0 F
b0 h
b0 ?#
b0 H#
b0 $
b0 (
b0 ;
b0 E
b0 g
b0 >#
b0 G#
#30
1v
1""
1,"
1!
1#
1O
1W
1_
b1111 B
b1111 G
1f
1q
0s
1m
0{
0}
1w
0'"
0)"
bz111 i
1#"
b1 ?
b1 j
00"
02"
1C
1L
1T
1\
1c
1n
1p
1x
1z
1$"
1&"
1-"
1/"
b1111 E#
b1111 A#
1J
1Q
1Y
1a
1l
1u
1!"
1+"
b1111 %
b1111 )
b1111 <
b1111 F
b1111 h
b1111 ?#
b1111 H#
#35
1{
1'"
b1111 ?
b1111 j
10"
0v
0""
0,"
0!
0#
0m
0w
bz000 i
0#"
0C
0p
0z
0&"
0/"
0r
0|
0("
01"
0J
0Q
0Y
0a
0l
0u
0!"
0+"
1I
1P
1X
1`
1k
1t
1~
1*"
b0 %
b0 )
b0 <
b0 F
b0 h
b0 ?#
b0 H#
b1111 $
b1111 (
b1111 ;
b1111 E
b1111 g
b1111 >#
b1111 G#
#40
1`$
0X$
1C
1\$
1."
14$
1P$
1,"
1)$
11$
1|#
1B$
1#"
1<$
1"$
1*$
0;$
0J#
0_$
0I#
1%"
18$
1%$
1-$
19$
1M$
1U$
1]$
1""
1!$
1($
b111 }#
12$
1F$
1N$
b111 C$
1V$
1w
1X#
05$
1I$
0Q$
1Y$
1y
1h#
1p#
1u#
0K#
00$
1E$
0L$
1T$
1v
1c#
1k#
1s#
b1011 y#
b1101 ?$
1!
bz111 i
1m
1\#
1d#
b111 Y#
1l#
b10110 S#
b110 W#
0w#
0&$
1.$
06$
b11010 R#
b1010 {#
1=$
0J$
0R$
1Z$
b11100 Q#
b1100 A$
1a$
1Z
1b
0@
1#
1o
1_#
1g#
1o#
1t#
0#$
0+$
13$
0:$
0G$
1O$
0W$
0^$
1R
1S
1W
1[
1_
1D
1f
1s
1{
1}
1'"
1)"
10"
12"
1[#
1b#
1j#
1Z#
1a#
1i#
1q#
1~#
1'$
1/$
17$
1D$
1K$
1S$
1[$
b111 H
1K
1N
0L
1V
0T
1^
0\
1e
0c
0n
0x
0$"
0-"
b1111 F#
b0 A#
b11100001 2
b11100001 P#
b111 L#
b111 U#
b1111 O#
b1111 T#
b1111 N#
b1111 x#
b1111 M#
b1111 >$
0M
b1111 B
b1111 G
1O
b1111 ?
b1111 j
1q
1J
1Q
1Y
1a
1l
1u
1!"
1+"
1&
b1111 %
b1111 )
b1111 <
b1111 F
b1111 h
b1111 ?#
b1111 H#
